…
###### Starting hour

``` r
## Summarizing by start hour, skimming data

cyclistic %>%
  dplyr::group_by(start_hour) %>%
  dplyr::summarize(count = length(ride_id),
            '%' = (length(ride_id) / nrow(cyclistic)) * 100,
            'members_percentage' = (sum(member_casual == "member") / length(ride_id)) * 100,
            'casuals_percentage' = (sum(member_casual == "casual") / length(ride_id)) * 100,
            'member_vs_casual_percent_difference' = members_percentage - casuals_percentage)
```

    ## # A tibble: 24 × 6
    ##    start_hour  count   `%` members_percentage casuals_percenta… member_vs_casua…
    ##    <chr>       <int> <dbl>              <dbl>             <dbl>            <dbl>
    ##  1 00          23605 0.427               52.2              47.8             4.33
    ##  2 01          47451 0.859               73.5              26.5            46.9 
    ##  3 02         112476 2.04                78.1              21.9            56.2 
    ##  4 03         197876 3.58                78.3              21.7            56.6 
    ##  5 04         237881 4.30                75.2              24.8            50.4 
    ##  6 05         205477 3.72                67.7              32.3            35.3 
    ##  7 06         220379 3.99                60.3              39.7            20.6 
    ##  8 07         273315 4.95                57.3              42.7            14.5 
    ##  9 08         323524 5.85                55.7              44.3            11.5 
    ## 10 09         334796 6.06                53.3              46.7             6.70
    ## # … with 14 more rows
…
